疑問	ぎもん	otázka, problém, pochybnosť
雰囲気	ふんいき	atmosféra (nálada)
区切	くぎ)	koniec, pauza
具体的	ぐたいてき	konkrétny, detailný
記入	きにゅう	vyplniť
競技	きょうぎ	zápas
苦情	くじょう	sťažnosť
具合	ぐあい	stav
蒸気	じょうき	para
期限	きげん)	obdobie, éra, perióda
定期	ていき	fixný termín
議論	ぎろん	diskusia, argument
規則	きそく	pravidlá, predpisy
空気	くうき	vzduch, atmosféra
湿気	しっき	vlhkosť
記者	きしゃ	reportér
期待	きたい	očakávanie
器用	きよう	šikovný, zručný
短期	たんき	krátkodobý
苦労	くろう	problémy, ťažkosti
暗記	あんき	memorovať, učit sa naspamäť
活気	かっき	energia
起床	きしょう	vstávanie
帰宅	きたく	návrat domov
記録	きろく	rekord (svetový)
機関	きかん	dopravné prostriedky, systém dopravy
規則	きそく
希望	きぼう	nádej, túžba, snaha
機械	きかい	stroj, prístroj
機会	きかい	príležitosť
苦労	くろう	ťažko pracovať. usilovať sa
記録	きろく	rekord (svetový)
病気	びょうき	choroba
議長	ぎちょう	predseda
期間	きかん	doba
大気	たいき	atmosféra
期待	きたい	očakávanie
技術	ぎじゅつ	technológie
寄付	きふ	príspevok, podpora
四季	しき	4 ročné obdobia
区別	くべつ	rozdiel, rozlíšenie
疑問	ぎもん	otázka, problém, pochybnosť
具体的	ぐたいてき	konkrétny, detailný
記号	きごう	symbol, znamenie
食器	しょっき	riady
議論	ぎろん	diskutovať, argumentovať
気分	きぶん	nálada
日記	にっき	denník
器用	きよう	praktický
危険	きけん	nebezpečenstvo
気に入り	きにいり	obľúbený
