砕けた	くだけた	easy (e.g. explanation, description); plain; familiar
くだけた会話	くだけたかいわ	casual conversation
複雑	ふくざつ	complex; complicated; mixed (feelings)
課	か	lesson
丁寧	ていねい	polite; courteous; civil
現れる	あらわれる	to appear; to come in sight; to become visible; to come out; to embody; to materialize; to materialise
観察	かんさつ	observation; survey; watching
票	ひょう	vote; ballot
男女	だんじょ	men and women; man and woman; both sexes; both genders
随分	ずいぶん	very; extremely; surprisingly; considerably
文字	もじ	letter (of alphabet); character
省略	しょうりゃく	omission; abbreviation; abridgment; abridgement
短縮形	たんしゅくけい	abbreviation; abbreviated form; shortened form
最後	さいご	end; conclusion
連絡	れんらく	to contact; to get in touch
誘う	さそう	to invite; to ask (someone to do); to call (for); to take (someone) along
断る	ことわる	to refuse; to reject; to dismiss; to turn down; to decline
倒置	とうち	turning upside down; placing nonessentials before essentials
特徴	とくちょう	feature; trait; characteristic; peculiarity; distinction
携帯	けいたい	something carried (in the hand); handheld; portable
表	ひょう	table (e.g. Table 1); chart; list
表す	あらわす	to represent; to signify; to stand for
最も	もっとも	most; extremely
