保証	ほしょう	guarantee; security; assurance; pledge; warranty
期間	きかん	period; term; interval
販売店	はんばいてん	store; shop
空欄	くうらん	blank space
保証書	ほしょうしょ	written guarantee; guarantee letter; warranty; warranty card
修理	しゅうり	repair; mending; fixing; servicing
有効	ゆうこう	valid; effective
有料	ゆうりょう	fee-charging; paid; not free
無効	むこう	invalid; void; ineffective; unavailable
記載	きさい	record; statement; description; mention; listing; registration; booking; entry
製造番号	せいぞうばんごう	(manufacturer's) serial number
実践	じっせん	practice; putting into practice; implementation
実戦	じっせん	combat; actual fighting
不適切	ふてきせつ	unsuitable; inappropriate; improper
故障	こしょう	breakdown; failure; fault; accident; out of order
記入	きにゅう	entry (in a form, register, diary, etc.); filling in; filling out
胃腸薬	いちょうやく	digestive medicine; medicine for the stomach and bowels
服用	ふくよう	taking medicine; dosing
妊娠	にんしん	conception; pregnancy
痒み	かゆみ	itch
機械類	きかいるい	machinery; gadgetry; equipment
操作	そうさ	operation; management; handling
妊婦	にんぷ	pregnant woman
妊婦服	にんぷふく	maternity clothes
皮膚	ひふ	skin
営業所	えいぎょうしょ	business office; place of business
不在	ふざい	absence
対応	たいおう	interaction; correspondence; coping with; dealing with; support; response; reception
以降	いこう	on and after; as from; hereafter; thereafter; since
通信文	つうしんぶん	message
宅配便	たくはいびん	express home delivery service
上陸	じょうりく	landing; disembarkation; landfall
