応募	おうぼ	application; subscription; entry (competition, raffle, etc.); enlistment
不可	ふか	skr. 不可能性 nemožno
求人案内	きゅうじんあんない	ponuka práce
時給	じきゅう	hourly pay; hourly wage
履歴書	りれきしょ	personal history; curriculum vitae; resume
歓迎	かんげい	welcome; reception
資格	しかく	qualifications; requirements; capabilities
全額支給	ぜんがくしきゅう	kompletne hradené
応募	おうぼ	application; subscription; entry (competition, raffle, etc.); enlistment
不問	ふもん	something not questioned; something not asked about; something not relevant; something of no object
分譲	ぶんじょう	selling (real-estate) lots
賃貸	ちんたい	lease; rent; hire
保証金	ほしょうきん	záloha, depozit; deposit (esp. on renting a house); security money; bond payment; guarantee
敷金	しききん	depozit; (security) deposit; caution money
礼金	れいきん	poplatok; finder's fee; reward; honorarium
徒歩	とほ	pešo
畳	じょう	napr. 6畳 - 6 tatami
管理費	かんりひ	administration costs; administrative expenses; management costs
専有面積	せんゆうめんせき	plošná výmera, 平方メートル（へいほう）、平米（へいべい）
築15年	ちくーねん	vek stavby
活用	かつよう	practical use; application
